%YAML 1.1
%TAG !u! tag:unity3d.com,2011:
--- !u!74 &7400000
AnimationClip:
  m_ObjectHideFlags: 0
  m_CorrespondingSourceObject: {fileID: 0}
  m_PrefabInternal: {fileID: 0}
  m_Name: enemyWalk
  serializedVersion: 6
  m_Legacy: 0
  m_Compressed: 0
  m_UseHighQualityCurve: 1
  m_RotationCurves: []
  m_CompressedRotationCurves: []
  m_EulerCurves: []
  m_PositionCurves: []
  m_ScaleCurves: []
  m_FloatCurves: []
  m_PPtrCurves:
  - curve:
    - time: 0
      value: {fileID: 21300000, guid: d3e90a1b0b7be470ebd863b416e0e92a, type: 3}
    - time: 0.14285715
      value: {fileID: 21300000, guid: f2d8f4ceb7c064129966f15d3e4e2315, type: 3}
    - time: 0.2857143
      value: {fileID: 21300000, guid: c0dcd60a29caa42eabf0e3a1d40cd29a, type: 3}
    - time: 0.42857143
      value: {fileID: 21300000, guid: f7c22ae67012a4580b6312f67ea1a62f, type: 3}
    - time: 0.5714286
      value: {fileID: 21300000, guid: 9eba81229b34d47989b5a847262dfdf5, type: 3}
    - time: 0.71428573
      value: {fileID: 21300000, guid: c31cf2f77e6e142f690e9b9e4bf43e18, type: 3}
    - time: 0.85714287
      value: {fileID: 21300000, guid: a4f5b511e943e4466b70e444ebd4dfd1, type: 3}
    - time: 1
      value: {fileID: 21300000, guid: 2fecae5cde7bf48a6a7ecf3f86295bb7, type: 3}
    - time: 1.1428572
      value: {fileID: 21300000, guid: 4294730fc2d6b4366815f7406309224e, type: 3}
    - time: 1.2857144
      value: {fileID: 21300000, guid: 63e6fcef4c7e9418083b610d74ac7ed6, type: 3}
    - time: 1.4285716
      value: {fileID: 21300000, guid: ca439d5291261420894c8fc7cbec32ce, type: 3}
    - time: 1.5714288
      value: {fileID: 21300000, guid: 89c2460541ef5439e8b0664bf2cb9043, type: 3}
    - time: 1.714286
      value: {fileID: 21300000, guid: cde3daec5c43c4511aa61f792855fac0, type: 3}
    - time: 1.8571432
      value: {fileID: 21300000, guid: c3593288cfdb743198275066f369b938, type: 3}
    attribute: m_Sprite
    path: 
    classID: 212
    script: {fileID: 0}
  m_SampleRate: 7
  m_WrapMode: 2
  m_Bounds:
    m_Center: {x: 0, y: 0, z: 0}
    m_Extent: {x: 0, y: 0, z: 0}
  m_ClipBindingConstant:
    genericBindings:
    - serializedVersion: 2
      path: 0
      attribute: 0
      script: {fileID: 0}
      typeID: 212
      customType: 23
      isPPtrCurve: 1
    pptrCurveMapping:
    - {fileID: 21300000, guid: d3e90a1b0b7be470ebd863b416e0e92a, type: 3}
    - {fileID: 21300000, guid: f2d8f4ceb7c064129966f15d3e4e2315, type: 3}
    - {fileID: 21300000, guid: c0dcd60a29caa42eabf0e3a1d40cd29a, type: 3}
    - {fileID: 21300000, guid: f7c22ae67012a4580b6312f67ea1a62f, type: 3}
    - {fileID: 21300000, guid: 9eba81229b34d47989b5a847262dfdf5, type: 3}
    - {fileID: 21300000, guid: c31cf2f77e6e142f690e9b9e4bf43e18, type: 3}
    - {fileID: 21300000, guid: a4f5b511e943e4466b70e444ebd4dfd1, type: 3}
    - {fileID: 21300000, guid: 2fecae5cde7bf48a6a7ecf3f86295bb7, type: 3}
    - {fileID: 21300000, guid: 4294730fc2d6b4366815f7406309224e, type: 3}
    - {fileID: 21300000, guid: 63e6fcef4c7e9418083b610d74ac7ed6, type: 3}
    - {fileID: 21300000, guid: ca439d5291261420894c8fc7cbec32ce, type: 3}
    - {fileID: 21300000, guid: 89c2460541ef5439e8b0664bf2cb9043, type: 3}
    - {fileID: 21300000, guid: cde3daec5c43c4511aa61f792855fac0, type: 3}
    - {fileID: 21300000, guid: c3593288cfdb743198275066f369b938, type: 3}
  m_AnimationClipSettings:
    serializedVersion: 2
    m_AdditiveReferencePoseClip: {fileID: 0}
    m_AdditiveReferencePoseTime: 0
    m_StartTime: 0
    m_StopTime: 2.0000002
    m_OrientationOffsetY: 0
    m_Level: 0
    m_CycleOffset: 0
    m_HasAdditiveReferencePose: 0
    m_LoopTime: 1
    m_LoopBlend: 0
    m_LoopBlendOrientation: 0
    m_LoopBlendPositionY: 0
    m_LoopBlendPositionXZ: 0
    m_KeepOriginalOrientation: 0
    m_KeepOriginalPositionY: 1
    m_KeepOriginalPositionXZ: 0
    m_HeightFromFeet: 0
    m_Mirror: 0
  m_EditorCurves: []
  m_EulerEditorCurves: []
  m_HasGenericRootTransform: 0
  m_HasMotionFloatCurves: 0
  m_GenerateMotionCurves: 0
  m_Events: []
